…
``` r
nested_data = homicide_data %>%
  group_by(city_state) %>%
  nest()

print(nested_data) 
```

    ## # A tibble: 46 × 2
    ## # Groups:   city_state [46]
    ##    city_state      data                 
    ##    <chr>           <list>               
    ##  1 Albuquerque, NM <tibble [178 × 13]>  
    ##  2 Atlanta, GA     <tibble [945 × 13]>  
    ##  3 Baltimore, MD   <tibble [2,753 × 13]>
    ##  4 Baton Rouge, LA <tibble [410 × 13]>  
    ##  5 Birmingham, AL  <tibble [771 × 13]>  
    ##  6 Boston, MA      <tibble [492 × 13]>  
    ##  7 Buffalo, NY     <tibble [479 × 13]>  
    ##  8 Charlotte, NC   <tibble [584 × 13]>  
    ##  9 Chicago, IL     <tibble [4,507 × 13]>
    ## 10 Cincinnati, OH  <tibble [679 × 13]>  
    ## # ℹ 36 more rows
…
